<?xml version="1.0" encoding="utf-8"?>
<!-- Generator: Adobe Illustrator 16.0.0, SVG Export Plug-In . SVG Version: 6.00 Build 0)  -->
<!DOCTYPE svg PUBLIC "-//W3C//DTD SVG 1.1//EN" "http://www.w3.org/Graphics/SVG/1.1/DTD/svg11.dtd">
<svg version="1.1" id="Layer_1" xmlns:sketch="http://www.bohemiancoding.com/sketch/ns"
	 xmlns="http://www.w3.org/2000/svg" xmlns:xlink="http://www.w3.org/1999/xlink" x="0px" y="0px" width="10px" height="10px"
	 viewBox="7 7 10 10" enable-background="new 7 7 10 10" xml:space="preserve" fill="#253746">
<title></title>
<desc></desc>
<g id="miu">
	<g id="Artboard-1" transform="translate(-215.000000, -335.000000)">
		<g id="slice" transform="translate(215.000000, 119.000000)">
		</g>
		<path id="common-email-envelope-mail-outline-stroke" fill="#253746" d="M231.546,344.282v-0.464h-9.091v0.464l4.545,3.484
			L231.546,344.282z M231.546,344.853v5.006l-2.836-2.836L231.546,344.853z M231.224,350.182h-8.446l2.878-2.879l1.345,1.03
			l1.346-1.031L231.224,350.182z M222.455,349.861v-5.008l2.836,2.17L222.455,349.861z M222,343.363h10v7.273h-10V343.363z"/>
	</g>
</g>
</svg>
