<?xml version="1.0" encoding="utf-8"?>
<!-- Generator: Adobe Illustrator 16.0.0, SVG Export Plug-In . SVG Version: 6.00 Build 0)  -->
<!DOCTYPE svg PUBLIC "-//W3C//DTD SVG 1.1//EN" "http://www.w3.org/Graphics/SVG/1.1/DTD/svg11.dtd">
<svg version="1.1" id="Layer_1" xmlns="http://www.w3.org/2000/svg" xmlns:xlink="http://www.w3.org/1999/xlink" x="0px" y="0px"
	 width="10px" height="10.001px" viewBox="891 891 10 10.001" enable-background="new 891 891 10 10.001" xml:space="preserve">
<path fill="#253746" d="M901,898.897c0,0.128-0.023,0.295-0.071,0.501c-0.047,0.206-0.097,0.368-0.149,0.486
	c-0.099,0.237-0.388,0.488-0.866,0.753c-0.444,0.242-0.885,0.362-1.321,0.362c-0.127,0-0.251-0.008-0.372-0.025
	c-0.121-0.016-0.258-0.046-0.409-0.088c-0.151-0.043-0.264-0.077-0.337-0.104c-0.073-0.025-0.205-0.074-0.394-0.146
	c-0.189-0.07-0.306-0.113-0.349-0.128c-0.464-0.165-0.878-0.362-1.243-0.59c-0.606-0.373-1.232-0.884-1.878-1.53
	c-0.646-0.646-1.157-1.272-1.531-1.878c-0.227-0.365-0.424-0.779-0.589-1.243c-0.015-0.043-0.057-0.158-0.128-0.348
	c-0.071-0.189-0.12-0.321-0.146-0.394s-0.061-0.186-0.103-0.337s-0.072-0.288-0.089-0.409c-0.017-0.12-0.025-0.245-0.025-0.373
	c0-0.436,0.121-0.875,0.362-1.321c0.265-0.478,0.516-0.768,0.753-0.867c0.118-0.052,0.28-0.102,0.486-0.149
	c0.206-0.047,0.373-0.071,0.501-0.071c0.066,0,0.116,0.007,0.149,0.021c0.085,0.028,0.21,0.208,0.376,0.54
	c0.052,0.09,0.123,0.218,0.213,0.383c0.09,0.166,0.173,0.316,0.249,0.452c0.076,0.134,0.149,0.261,0.22,0.38
	c0.014,0.019,0.056,0.078,0.125,0.177c0.068,0.1,0.12,0.184,0.153,0.252c0.033,0.069,0.049,0.136,0.049,0.202
	c0,0.095-0.067,0.213-0.202,0.355c-0.135,0.142-0.282,0.272-0.44,0.391c-0.159,0.118-0.305,0.244-0.44,0.376
	c-0.135,0.133-0.203,0.242-0.203,0.327c0,0.042,0.012,0.095,0.036,0.16c0.024,0.064,0.044,0.112,0.061,0.146s0.05,0.09,0.099,0.17
	c0.05,0.081,0.077,0.125,0.082,0.135c0.36,0.649,0.771,1.206,1.236,1.669c0.464,0.464,1.02,0.876,1.669,1.235
	c0.009,0.005,0.054,0.032,0.135,0.082c0.08,0.05,0.137,0.083,0.17,0.099c0.033,0.018,0.082,0.037,0.146,0.062
	c0.064,0.023,0.117,0.035,0.16,0.035c0.085,0,0.193-0.067,0.327-0.202c0.132-0.136,0.257-0.282,0.376-0.441
	c0.118-0.158,0.249-0.305,0.391-0.439c0.143-0.135,0.261-0.202,0.354-0.202c0.066,0,0.135,0.016,0.203,0.049
	s0.152,0.084,0.252,0.153c0.1,0.068,0.158,0.11,0.178,0.124c0.118,0.071,0.245,0.145,0.38,0.221
	c0.135,0.075,0.285,0.158,0.451,0.248c0.165,0.09,0.293,0.161,0.384,0.213c0.331,0.166,0.511,0.291,0.539,0.376
	C900.993,898.782,901,898.831,901,898.897z"/>
</svg>
