<?xml version="1.0" encoding="utf-8"?>
<!-- Generator: Adobe Illustrator 16.0.0, SVG Export Plug-In . SVG Version: 6.00 Build 0)  -->
<!DOCTYPE svg PUBLIC "-//W3C//DTD SVG 1.1//EN" "http://www.w3.org/Graphics/SVG/1.1/DTD/svg11.dtd">
<svg version="1.1" id="Layer_1" xmlns="http://www.w3.org/2000/svg" xmlns:xlink="http://www.w3.org/1999/xlink" x="0px" y="0px"
	 width="366.842px" height="79.338px" viewBox="0 0 366.842 79.338" enable-background="new 0 0 366.842 79.338"
	 xml:space="preserve">
<g>
	<path fill="#FFFFFF" d="M98.825,65.809c-4.637,0-6.955-3.305-6.955-9.914V43.775h0.832v12.119c0,6.054,2.041,9.081,6.123,9.081
		c1.027,0,2.04-0.188,3.04-0.562c1-0.378,1.917-0.891,2.749-1.541c0.833-0.652,1.563-1.438,2.187-2.354
		c0.625-0.917,1.104-1.915,1.437-2.998V43.775h0.833v19.949c0,0.558,0.222,0.835,0.666,0.835v0.833
		c-0.306,0-0.499-0.028-0.583-0.085c-0.278-0.111-0.5-0.312-0.666-0.604c-0.167-0.289-0.25-0.616-0.25-0.979v-3.831
		c-0.944,1.834-2.263,3.276-3.957,4.332C102.587,65.28,100.769,65.809,98.825,65.809"/>
	<path fill="#FFFFFF" d="M136.143,65.393h-0.834V53.355c0-3.167-0.437-5.471-1.312-6.916c-0.874-1.442-2.283-2.165-4.227-2.165
		c-1.055,0-2.09,0.188-3.103,0.562c-1.014,0.378-1.95,0.897-2.812,1.564c-0.861,0.666-1.61,1.456-2.248,2.373
		c-0.639,0.917-1.111,1.903-1.416,2.956v13.663h-0.834V43.776h0.834v5.58c0.443-0.86,1.013-1.658,1.707-2.395
		c0.694-0.735,1.458-1.359,2.291-1.876c0.834-0.513,1.722-0.917,2.666-1.205c0.943-0.294,1.902-0.439,2.873-0.439
		c2.221,0,3.846,0.798,4.874,2.396c1.027,1.597,1.541,4.102,1.541,7.519V65.393z"/>
	<path fill="#FFFFFF" d="M146.139,34.987h0.834v3.206h-0.834V34.987z M146.139,43.776h0.834v21.616h-0.834V43.776z"/>
	<path fill="#FFFFFF" d="M155.718,54.48c0-1.557,0.264-3.007,0.792-4.354c0.526-1.345,1.262-2.512,2.207-3.498
		c0.943-0.986,2.047-1.762,3.311-2.332c1.263-0.57,2.631-0.854,4.103-0.854c1.832,0,3.463,0.424,4.894,1.271
		c1.429,0.849,2.505,2.035,3.227,3.562l-0.832,0.292c-0.723-1.333-1.744-2.381-3.062-3.145c-1.319-0.763-2.77-1.146-4.352-1.146
		c-1.333,0-2.568,0.265-3.707,0.793c-1.138,0.527-2.138,1.249-2.999,2.165c-0.861,0.917-1.534,2-2.02,3.249
		c-0.487,1.249-0.729,2.582-0.729,3.999c0,1.415,0.25,2.763,0.75,4.039c0.5,1.277,1.187,2.396,2.062,3.352
		c0.875,0.959,1.881,1.715,3.019,2.27c1.139,0.559,2.36,0.835,3.666,0.835c0.833,0,1.673-0.126,2.519-0.377
		c0.847-0.246,1.625-0.582,2.333-0.998c0.708-0.415,1.312-0.901,1.812-1.456c0.499-0.556,0.833-1.125,0.999-1.71l0.833,0.25
		c-0.25,0.724-0.645,1.395-1.186,2.021c-0.542,0.625-1.188,1.165-1.938,1.623c-0.75,0.459-1.576,0.82-2.478,1.083
		c-0.903,0.265-1.826,0.397-2.77,0.397c-1.416,0-2.763-0.301-4.04-0.897c-1.277-0.595-2.388-1.408-3.332-2.437
		c-0.944-1.025-1.693-2.228-2.249-3.603C155.996,57.498,155.718,56.034,155.718,54.48"/>
	<path fill="#FFFFFF" d="M191.579,65.809c-1.416,0-2.749-0.3-3.998-0.897c-1.25-0.594-2.34-1.399-3.27-2.416
		c-0.932-1.01-1.665-2.2-2.207-3.56c-0.541-1.36-0.813-2.79-0.813-4.289c0-1.527,0.272-2.964,0.813-4.312
		c0.542-1.345,1.284-2.531,2.228-3.56c0.944-1.029,2.041-1.839,3.29-2.437c1.25-0.597,2.569-0.896,3.957-0.896
		s2.707,0.3,3.957,0.896c1.249,0.598,2.339,1.407,3.271,2.437c0.929,1.028,1.672,2.215,2.227,3.56
		c0.556,1.349,0.834,2.785,0.834,4.312c0,1.499-0.271,2.929-0.812,4.289c-0.542,1.359-1.278,2.55-2.208,3.56
		c-0.932,1.017-2.021,1.822-3.271,2.416C194.328,65.509,192.995,65.809,191.579,65.809 M182.124,54.73
		c0,1.388,0.25,2.706,0.751,3.955c0.499,1.251,1.172,2.341,2.02,3.27c0.848,0.933,1.84,1.665,2.979,2.208
		c1.139,0.54,2.36,0.813,3.664,0.813c1.278,0,2.493-0.278,3.646-0.835c1.151-0.556,2.166-1.305,3.04-2.248
		c0.875-0.944,1.562-2.041,2.062-3.29c0.5-1.249,0.749-2.582,0.749-3.999c0-1.389-0.249-2.706-0.749-3.957
		c-0.499-1.249-1.181-2.348-2.041-3.291c-0.861-0.944-1.868-1.692-3.019-2.247c-1.153-0.555-2.367-0.835-3.646-0.835
		c-1.277,0-2.492,0.28-3.645,0.835s-2.159,1.31-3.02,2.269c-0.86,0.957-1.541,2.069-2.04,3.331
		C182.374,51.973,182.124,53.313,182.124,54.73"/>
	<path fill="#FFFFFF" d="M219.86,44.608c-2.056,0.082-3.826,0.748-5.312,2c-1.485,1.248-2.52,2.956-3.102,5.121v13.663h-0.834
		V43.775h0.834v5.58c0.749-1.526,1.755-2.782,3.019-3.769c1.264-0.985,2.604-1.561,4.02-1.729c0.276-0.027,0.535-0.047,0.77-0.062
		c0.236-0.012,0.438-0.02,0.605-0.02V44.608z"/>
	<path fill="#FFFFFF" d="M244.267,65.393h-0.834V53.355c0-3.167-0.437-5.471-1.312-6.916c-0.874-1.442-2.283-2.165-4.228-2.165
		c-1.055,0-2.09,0.188-3.103,0.562c-1.014,0.378-1.95,0.897-2.812,1.564c-0.86,0.666-1.609,1.456-2.248,2.373
		s-1.11,1.903-1.416,2.956v13.663h-0.834V43.776h0.834v5.58c0.443-0.86,1.014-1.658,1.707-2.395
		c0.694-0.735,1.458-1.359,2.291-1.876c0.834-0.513,1.723-0.917,2.666-1.205c0.943-0.294,1.902-0.439,2.873-0.439
		c2.222,0,3.847,0.798,4.874,2.396c1.027,1.597,1.541,4.102,1.541,7.519V65.393z"/>
	<path fill="#FFFFFF" d="M260.925,65.809c-1.665,0-3.262-0.278-4.79-0.833c-1.526-0.555-2.858-1.39-3.997-2.5l1.041-1.414
		c1.167,1.055,2.375,1.831,3.624,2.331c1.25,0.501,2.623,0.748,4.122,0.748c1.889,0,3.408-0.394,4.562-1.187
		c1.151-0.79,1.728-1.893,1.728-3.311c0-0.666-0.146-1.229-0.437-1.687c-0.293-0.459-0.73-0.846-1.312-1.165
		c-0.584-0.319-1.306-0.604-2.166-0.855c-0.86-0.25-1.86-0.513-2.999-0.79c-1.222-0.278-2.284-0.555-3.187-0.835
		c-0.902-0.275-1.646-0.61-2.227-0.999c-0.584-0.389-1.021-0.859-1.312-1.414c-0.293-0.558-0.438-1.264-0.438-2.126
		c0-1.083,0.208-2.027,0.625-2.833c0.416-0.805,0.991-1.471,1.728-1.999c0.736-0.524,1.583-0.922,2.541-1.187
		c0.958-0.264,1.978-0.395,3.061-0.395c1.694,0,3.193,0.285,4.499,0.853c1.305,0.569,2.318,1.299,3.04,2.188l-1.166,1.125
		c-0.723-0.835-1.659-1.459-2.812-1.876c-1.152-0.416-2.381-0.624-3.687-0.624c-0.805,0-1.562,0.084-2.27,0.25
		s-1.326,0.432-1.854,0.791c-0.527,0.361-0.943,0.827-1.25,1.396c-0.306,0.569-0.457,1.243-0.457,2.021
		c0,0.636,0.104,1.152,0.312,1.541c0.209,0.389,0.542,0.721,1,0.998c0.458,0.278,1.048,0.521,1.771,0.729
		c0.722,0.208,1.582,0.438,2.582,0.686c1.359,0.335,2.567,0.654,3.623,0.959c1.056,0.307,1.938,0.682,2.646,1.125
		c0.708,0.444,1.25,0.971,1.624,1.583c0.375,0.61,0.562,1.388,0.562,2.332c0,1.945-0.757,3.491-2.269,4.643
		C265.473,65.231,263.453,65.809,260.925,65.809"/>
	<path fill="#FFFFFF" d="M277.503,34.987h2.123v26.114c0,0.807,0.23,1.443,0.688,1.918c0.458,0.47,1.089,0.705,1.894,0.705
		c0.306,0,0.674-0.034,1.104-0.104c0.431-0.067,0.826-0.174,1.187-0.313l0.418,1.669c-0.474,0.192-1.056,0.354-1.75,0.478
		s-1.292,0.189-1.791,0.189c-1.166,0-2.104-0.355-2.811-1.063c-0.709-0.709-1.062-1.661-1.062-2.852V34.987z"/>
	<path fill="#FFFFFF" d="M300.328,65.809c-1.528,0-2.944-0.299-4.249-0.897c-1.306-0.594-2.438-1.414-3.395-2.455
		c-0.958-1.043-1.707-2.243-2.249-3.603c-0.541-1.36-0.812-2.82-0.812-4.373c0-1.527,0.271-2.964,0.812-4.312
		c0.542-1.348,1.284-2.526,2.229-3.54c0.943-1.014,2.068-1.812,3.373-2.394c1.305-0.585,2.708-0.875,4.208-0.875
		c1.525,0,2.936,0.298,4.227,0.895c1.291,0.598,2.408,1.402,3.353,2.416c0.943,1.014,1.688,2.193,2.229,3.54
		s0.813,2.771,0.813,4.271c0,0.139-0.009,0.312-0.021,0.52c-0.015,0.208-0.021,0.34-0.021,0.395h-19.035
		c0.083,1.251,0.375,2.411,0.875,3.479c0.5,1.07,1.131,1.992,1.895,2.771c0.763,0.777,1.646,1.388,2.646,1.834
		c0.999,0.442,2.067,0.664,3.207,0.664c0.749,0,1.491-0.104,2.228-0.312c0.735-0.209,1.416-0.491,2.041-0.853
		c0.624-0.362,1.181-0.798,1.666-1.313c0.486-0.513,0.867-1.075,1.146-1.685l1.834,0.498c-0.334,0.777-0.801,1.494-1.397,2.146
		c-0.597,0.652-1.291,1.214-2.081,1.688c-0.792,0.471-1.66,0.84-2.604,1.103C302.298,65.678,301.327,65.809,300.328,65.809
		 M308.824,53.729c-0.083-1.276-0.368-2.443-0.854-3.499c-0.485-1.056-1.111-1.965-1.874-2.729
		c-0.763-0.763-1.645-1.359-2.645-1.791c-0.999-0.429-2.068-0.644-3.206-0.644c-1.14,0-2.208,0.215-3.208,0.644
		c-1,0.432-1.882,1.028-2.646,1.791c-0.763,0.764-1.374,1.681-1.832,2.751c-0.459,1.068-0.729,2.228-0.812,3.477H308.824z"/>
	<path fill="#FFFFFF" d="M327.984,65.809c-1.528,0-2.944-0.299-4.249-0.897c-1.306-0.594-2.438-1.414-3.395-2.455
		c-0.958-1.043-1.707-2.243-2.249-3.603c-0.541-1.36-0.812-2.82-0.812-4.373c0-1.527,0.271-2.964,0.812-4.312
		c0.542-1.348,1.284-2.526,2.229-3.54c0.943-1.014,2.068-1.812,3.373-2.394c1.305-0.585,2.708-0.875,4.208-0.875
		c1.525,0,2.936,0.298,4.227,0.895c1.291,0.598,2.408,1.402,3.352,2.416c0.944,1.014,1.688,2.193,2.229,3.54
		s0.812,2.771,0.812,4.271c0,0.139-0.008,0.312-0.021,0.52c-0.015,0.208-0.021,0.34-0.021,0.395h-19.034
		c0.083,1.251,0.375,2.411,0.875,3.479c0.5,1.07,1.131,1.992,1.895,2.771c0.763,0.777,1.646,1.388,2.646,1.834
		c0.999,0.442,2.067,0.664,3.207,0.664c0.749,0,1.491-0.104,2.228-0.312c0.735-0.209,1.416-0.491,2.041-0.853
		c0.624-0.362,1.181-0.798,1.666-1.313c0.486-0.513,0.867-1.075,1.145-1.685l1.834,0.498c-0.334,0.777-0.8,1.494-1.396,2.146
		c-0.597,0.652-1.291,1.214-2.081,1.688c-0.792,0.471-1.66,0.84-2.604,1.103C329.955,65.678,328.983,65.809,327.984,65.809
		 M336.479,53.729c-0.083-1.276-0.367-2.443-0.854-3.499c-0.485-1.056-1.111-1.965-1.874-2.729
		c-0.763-0.763-1.646-1.359-2.646-1.791c-0.998-0.429-2.067-0.644-3.205-0.644c-1.14,0-2.208,0.215-3.208,0.644
		c-1,0.432-1.882,1.028-2.646,1.791c-0.763,0.764-1.374,1.681-1.832,2.751c-0.459,1.068-0.729,2.228-0.812,3.477H336.479z"/>
	<path fill="#FFFFFF" d="M356.93,65.809c-1.86,0-3.513-0.493-4.955-1.479c-1.445-0.986-2.611-2.186-3.499-3.603v18.611h-2.083
		V43.733h1.874v4.331c0.889-1.388,2.068-2.52,3.541-3.395c1.471-0.874,3.04-1.31,4.706-1.31c1.499,0,2.881,0.318,4.144,0.955
		c1.264,0.64,2.354,1.479,3.271,2.521c0.917,1.041,1.631,2.242,2.146,3.603c0.512,1.36,0.769,2.75,0.769,4.165
		c0,1.499-0.234,2.932-0.707,4.289c-0.473,1.363-1.146,2.558-2.021,3.583c-0.875,1.028-1.923,1.841-3.145,2.437
		C359.749,65.509,358.402,65.809,356.93,65.809 M356.472,63.933c1.25,0,2.381-0.263,3.395-0.79c1.013-0.527,1.88-1.229,2.604-2.104
		c0.721-0.875,1.275-1.873,1.664-2.998c0.39-1.125,0.584-2.271,0.584-3.438c0-1.249-0.224-2.436-0.666-3.561
		c-0.445-1.125-1.057-2.116-1.832-2.979c-0.779-0.859-1.695-1.549-2.75-2.062c-1.056-0.512-2.181-0.771-3.373-0.771
		c-0.75,0-1.557,0.161-2.416,0.479c-0.861,0.32-1.666,0.751-2.416,1.291c-0.749,0.543-1.381,1.16-1.896,1.853
		c-0.515,0.697-0.812,1.434-0.895,2.208v7.124c0.333,0.806,0.776,1.555,1.332,2.247c0.555,0.697,1.181,1.307,1.874,1.834
		c0.693,0.528,1.45,0.938,2.27,1.229S355.611,63.933,356.472,63.933"/>
	<path fill="#FFFFFF" d="M57.752,74.245c0,0,0.201-0.544,0.578-1.562c0.395-1.021,1.007-2.5,1.93-4.331
		c0.923-1.829,2.179-3.994,3.872-6.323c1.67-2.338,3.873-4.798,6.341-7.268c2.444-2.487,5.146-5.059,7.395-8.041
		c2.328-2.792,4.561-6.101,5.202-9.879c0.305-1.889,0.275-3.732-0.386-5.663c-0.568-1.69-1.715-3.475-3.171-4.88
		c-1.456-1.446-3.263-2.605-5.213-3.444c-0.967-0.435-2-0.757-3.014-1.022c-1.144-0.296-2.093-0.449-3.224-0.596
		c-4.372-0.443-8.882,0.019-13.345,0.688c-4.474,0.66-9.015,1.33-13.576,1.231c-2.257-0.079-4.581-0.36-6.678-0.924
		c-2.223-0.577-4.19-1.361-6.069-2.268c-3.736-1.804-6.906-3.96-9.759-5.948c-2.852-1.977-5.399-3.873-7.692-5.509
		C8.651,6.869,6.67,5.417,5.062,4.186C1.816,1.767,0,0.325,0,0.325L0.211,0c0,0,2.058,1.068,5.591,3.044
		c1.781,0.965,3.915,2.181,6.345,3.604c2.428,1.422,5.205,2.981,8.166,4.767c2.969,1.749,6.149,3.635,9.632,5.143
		c1.735,0.724,3.594,1.391,5.414,1.825c1.946,0.446,3.862,0.719,5.93,0.79c4.104,0.227,8.473-0.275,13.009-0.715
		c4.54-0.412,9.297-0.916,14.122-0.297c1.16,0.127,2.495,0.343,3.587,0.614c1.219,0.299,2.397,0.655,3.537,1.145
		c2.279,0.955,4.41,2.271,6.264,3.941c1.855,1.699,3.358,3.709,4.305,6.214c0.874,2.264,1.136,4.938,0.83,7.326
		c-0.659,4.84-2.912,9.009-5.687,12.216c-2.924,3.05-5.99,5.327-8.664,7.49c-2.698,2.139-4.999,4.179-6.859,6.227
		c-1.868,2.029-3.319,3.973-4.445,5.622c-1.118,1.655-1.903,3.03-2.414,3.973c-0.5,0.959-0.767,1.471-0.767,1.471L57.752,74.245z"/>
	<path fill="#FFFFFF" d="M30.625,23.329c-1.277,3.03-1.982,4.703-3.259,7.734c-2.877,6.828-5.973,13.952-11.771,18.567
		c-1.27,1.012-2.668,1.899-3.691,3.16s-1.615,3.038-0.972,4.528c0.643,1.491,2.85,2.229,3.986,1.067
		c-0.719-0.799-0.492-2.243,0.438-2.782c0.929-0.54,2.296-0.022,2.634,0.997c0.754,2.271-2.99,3.819-2.981,6.212
		c0.005,1.538,1.695,2.631,3.233,2.578c1.537-0.053,2.917-0.908,4.214-1.737c1.501-0.959,3.003-1.919,4.504-2.878
		c0.838-0.535,1.676-1.07,2.514-1.605c4.226-2.7,8.453-5.401,12.679-8.102c3.111,0.974,6.652,0.953,9.537-0.562
		c4.336-2.28,7.014-7.109,7.346-11.996c2.547,7.812,2.711,16.416-0.622,23.928c1.738-3.661,4.046-7.17,7.328-10.257
		c3.281-3.088,6.98-5.8,9.643-9.435c2.662-3.635,4.145-8.571,2.313-12.688c-1.876-4.214-6.708-6.405-11.307-6.767
		c-4.599-0.361-9.172,0.72-13.761,1.189C45.51,25.208,37.438,25.521,30.625,23.329"/>
	<path fill="#FFFFFF" d="M42.543,17.369c-1.031-0.679-1.114-2.23-0.57-3.338c0.543-1.108,1.536-1.913,2.404-2.791
		c2.217-2.247,3.726-5.182,4.263-8.293c1.583,4.99,0.546,10.301-2.4,14.628C45.1,17.692,43.683,17.251,42.543,17.369"/>
	<path fill="#FFFFFF" d="M209.381,78.737c0.209,0,0.388-0.074,0.536-0.224c0.148-0.148,0.227-0.327,0.235-0.536V71.3
		c-0.009-0.209-0.087-0.387-0.235-0.535s-0.327-0.224-0.536-0.224h-0.157v-0.12h2.64v0.12h-0.156c-0.289,0-0.511,0.125-0.663,0.374
		c-0.072,0.12-0.108,0.249-0.108,0.385v7.184h1.724c0.595,0,1.049-0.132,1.361-0.397c0.313-0.265,0.575-0.658,0.784-1.181h0.12
		l-0.699,1.952h-5.002v-0.12H209.381z"/>
	<path fill="#FFFFFF" d="M224.917,70.541h-0.193c-0.168,0-0.315,0.055-0.439,0.163c-0.125,0.107-0.191,0.243-0.199,0.403v4.773
		c0,0.939-0.297,1.699-0.892,2.277c-0.595,0.579-1.386,0.868-2.374,0.868s-1.79-0.287-2.404-0.862
		c-0.615-0.574-0.922-1.331-0.922-2.271v-4.749c0-0.24-0.104-0.417-0.313-0.53c-0.097-0.048-0.205-0.072-0.326-0.072h-0.192v-0.12
		h2.446v0.12h-0.192c-0.177,0-0.325,0.055-0.446,0.163c-0.12,0.107-0.185,0.247-0.192,0.416v4.604c0,0.876,0.234,1.583,0.705,2.121
		c0.47,0.539,1.099,0.808,1.886,0.808s1.427-0.255,1.917-0.765c0.488-0.511,0.734-1.18,0.734-2.007V71.12
		c-0.008-0.169-0.072-0.309-0.192-0.416c-0.121-0.108-0.27-0.163-0.446-0.163h-0.192v-0.12h2.229V70.541z"/>
	<path fill="#FFFFFF" d="M234.437,78.737h0.169v0.12h-2.94v-0.12h0.145c0.177,0,0.313-0.081,0.41-0.241
		c0.056-0.089,0.084-0.173,0.084-0.253c0-0.081-0.021-0.161-0.061-0.241l-1.855-2.929l-1.856,2.916
		c-0.048,0.081-0.073,0.163-0.073,0.247c0,0.085,0.029,0.167,0.084,0.247c0.105,0.169,0.242,0.254,0.411,0.254h0.156v0.12h-2.736
		v-0.12h0.169c0.242,0,0.471-0.068,0.688-0.205s0.396-0.306,0.543-0.507l2.302-3.435l-2.109-3.338
		c-0.192-0.281-0.438-0.486-0.735-0.615c-0.161-0.064-0.321-0.097-0.481-0.097h-0.169v-0.12h2.916v0.12h-0.145
		c-0.169,0-0.306,0.081-0.409,0.241c-0.057,0.089-0.085,0.173-0.085,0.253c0,0.081,0.02,0.161,0.06,0.241l1.664,2.604l1.64-2.591
		c0.048-0.081,0.071-0.163,0.071-0.247c0-0.085-0.023-0.167-0.071-0.247c-0.097-0.169-0.233-0.254-0.41-0.254h-0.145v-0.12h2.711
		v0.12h-0.169c-0.24,0-0.468,0.068-0.68,0.205c-0.214,0.137-0.393,0.306-0.537,0.507l-2.108,3.109l2.338,3.676
		c0.192,0.273,0.438,0.474,0.735,0.603C234.116,78.705,234.277,78.737,234.437,78.737"/>
	<path fill="#FFFFFF" d="M244.284,70.541h-0.193c-0.168,0-0.315,0.055-0.439,0.163c-0.125,0.107-0.191,0.243-0.199,0.403v4.773
		c0,0.939-0.297,1.699-0.892,2.277c-0.595,0.579-1.386,0.868-2.374,0.868s-1.79-0.287-2.404-0.862
		c-0.615-0.574-0.922-1.331-0.922-2.271v-4.749c0-0.24-0.104-0.417-0.313-0.53c-0.097-0.048-0.205-0.072-0.326-0.072h-0.192v-0.12
		h2.445v0.12h-0.191c-0.177,0-0.325,0.055-0.446,0.163c-0.12,0.107-0.185,0.247-0.192,0.416v4.604c0,0.876,0.234,1.583,0.705,2.121
		c0.47,0.539,1.099,0.808,1.886,0.808s1.427-0.255,1.917-0.765c0.488-0.511,0.734-1.18,0.734-2.007V71.12
		c-0.008-0.169-0.072-0.309-0.192-0.416c-0.121-0.108-0.27-0.163-0.446-0.163h-0.192v-0.12h2.229V70.541z"/>
	<path fill="#FFFFFF" d="M248.9,70.795h-0.771v7.183c0,0.209,0.074,0.388,0.223,0.536c0.148,0.149,0.332,0.224,0.549,0.224h0.145
		l0.012,0.12h-2.64v-0.12h0.157c0.209,0,0.388-0.072,0.536-0.218c0.148-0.145,0.227-0.321,0.235-0.53v-6.688
		c-0.009-0.209-0.087-0.388-0.235-0.536s-0.327-0.224-0.536-0.224h-0.157v-0.12h3.254c0.731,0,1.307,0.203,1.725,0.608
		c0.417,0.406,0.626,0.933,0.626,1.578c0,0.647-0.198,1.206-0.597,1.676c-0.397,0.471-0.882,0.705-1.452,0.705
		c0.121,0.057,0.264,0.167,0.428,0.332c0.165,0.165,0.312,0.335,0.44,0.512c0.69,0.988,1.141,1.598,1.35,1.826
		c0.209,0.229,0.356,0.386,0.446,0.47c0.088,0.085,0.185,0.167,0.289,0.247c0.104,0.081,0.209,0.145,0.313,0.193
		c0.232,0.112,0.481,0.169,0.747,0.169v0.12h-0.663c-0.346,0-0.667-0.062-0.964-0.187c-0.298-0.125-0.521-0.253-0.669-0.386
		c-0.148-0.133-0.277-0.262-0.386-0.387s-0.408-0.54-0.897-1.246c-0.49-0.707-0.777-1.111-0.856-1.212
		c-0.08-0.101-0.164-0.198-0.254-0.295c-0.256-0.273-0.514-0.41-0.771-0.41v-0.12c0.064,0.008,0.148,0.012,0.253,0.012
		s0.233-0.004,0.386-0.012c0.996-0.024,1.623-0.442,1.881-1.254c0.048-0.16,0.072-0.311,0.072-0.452v-0.271
		c-0.017-0.538-0.157-0.973-0.422-1.302c-0.266-0.329-0.623-0.506-1.073-0.53C249.43,70.799,249.189,70.795,248.9,70.795"/>
	<path fill="#FFFFFF" d="M262.085,70.541h-0.169c-0.241,0-0.468,0.066-0.681,0.199c-0.212,0.133-0.392,0.3-0.536,0.5l-2.375,3.856
		v2.881c0,0.209,0.074,0.388,0.224,0.536c0.148,0.149,0.331,0.224,0.548,0.224h0.145v0.12h-2.627v-0.12h0.156
		c0.209,0,0.388-0.072,0.536-0.218c0.149-0.145,0.228-0.321,0.235-0.53v-2.904l-2.302-3.845c-0.121-0.192-0.291-0.357-0.513-0.494
		c-0.221-0.137-0.451-0.205-0.692-0.205h-0.169v-0.12h2.965v0.12h-0.157c-0.177,0-0.312,0.081-0.409,0.241
		c-0.048,0.089-0.072,0.175-0.072,0.26c0,0.084,0.02,0.166,0.061,0.247l1.808,3.374l1.928-3.387c0.04-0.08,0.061-0.16,0.061-0.241
		c0-0.08-0.028-0.164-0.084-0.253c-0.097-0.16-0.233-0.241-0.41-0.241h-0.145v-0.12h2.676V70.541z"/>
	<path fill="#FFFFFF" d="M277.728,78.737h0.193v0.12h-2.615v-0.108h0.181c0.138,0,0.253-0.055,0.35-0.163
		c0.096-0.108,0.136-0.227,0.121-0.355l-0.543-6.062l-2.531,5.629c-0.225,0.49-0.361,0.9-0.41,1.229h-0.12l-3.085-6.689
		l-0.519,5.894c-0.017,0.129,0.024,0.247,0.12,0.355c0.097,0.108,0.209,0.163,0.338,0.163h0.192v0.108h-2.338v-0.12h0.193
		c0.225,0,0.419-0.068,0.584-0.205s0.264-0.321,0.296-0.555l0.903-7.726h0.121l3.362,7.268l3.29-7.268h0.108l0.928,7.726
		c0.04,0.321,0.201,0.547,0.482,0.675C277.451,78.709,277.583,78.737,277.728,78.737"/>
	<path fill="#FFFFFF" d="M287.696,78.737h0.097v0.12h-2.713v-0.12h0.109c0.169,0,0.296-0.055,0.38-0.163
		c0.085-0.108,0.127-0.211,0.127-0.308c0-0.096-0.017-0.192-0.049-0.289l-0.771-2.049h-3.256l-0.806,2.061
		c-0.032,0.097-0.049,0.191-0.049,0.283c0,0.093,0.042,0.193,0.127,0.302c0.084,0.108,0.211,0.163,0.379,0.163h0.109v0.12h-2.423
		v-0.12h0.108c0.201,0,0.397-0.064,0.591-0.193c0.192-0.128,0.35-0.317,0.47-0.566l2.724-6.484c0.298-0.65,0.446-1.064,0.446-1.241
		h0.108l3.229,7.726c0.113,0.249,0.266,0.438,0.458,0.566C287.287,78.673,287.487,78.737,287.696,78.737 M281.766,75.567h2.965
		l-1.445-3.869L281.766,75.567z"/>
	<path fill="#FFFFFF" d="M294.867,71.493c0-0.192-0.068-0.359-0.205-0.5s-0.297-0.215-0.482-0.223h-2.29v7.219
		c0.009,0.209,0.087,0.386,0.235,0.53c0.149,0.146,0.328,0.218,0.537,0.218h0.156v0.12h-2.64v-0.12h0.157
		c0.209,0,0.388-0.072,0.536-0.218c0.148-0.145,0.227-0.316,0.235-0.518v-7.231h-2.29c-0.193,0.008-0.355,0.082-0.488,0.223
		s-0.199,0.308-0.199,0.5v0.205l-0.12,0.013v-1.519c0.12,0.048,0.329,0.096,0.627,0.145c0.297,0.048,0.57,0.072,0.819,0.072h4.073
		c0.394,0,0.722-0.03,0.982-0.091s0.419-0.103,0.477-0.126v1.519l-0.121-0.013V71.493z"/>
	<path fill="#FFFFFF" d="M299.386,70.795h-0.771v7.183c0,0.209,0.073,0.388,0.222,0.536c0.148,0.149,0.332,0.224,0.549,0.224h0.146
		l0.011,0.12h-2.64v-0.12h0.157c0.209,0,0.388-0.072,0.536-0.218c0.148-0.145,0.227-0.321,0.235-0.53v-6.688
		c-0.009-0.209-0.087-0.388-0.235-0.536s-0.327-0.224-0.536-0.224h-0.157v-0.12h3.255c0.73,0,1.306,0.203,1.724,0.608
		c0.417,0.406,0.626,0.933,0.626,1.578c0,0.647-0.198,1.206-0.597,1.676c-0.397,0.471-0.882,0.705-1.452,0.705
		c0.121,0.057,0.264,0.167,0.428,0.332c0.165,0.165,0.312,0.335,0.44,0.512c0.69,0.988,1.141,1.598,1.35,1.826
		c0.209,0.229,0.357,0.386,0.446,0.47c0.088,0.085,0.185,0.167,0.289,0.247c0.104,0.081,0.209,0.145,0.313,0.193
		c0.232,0.112,0.481,0.169,0.747,0.169v0.12h-0.663c-0.346,0-0.667-0.062-0.964-0.187c-0.298-0.125-0.521-0.253-0.669-0.386
		s-0.277-0.262-0.386-0.387s-0.408-0.54-0.897-1.246c-0.49-0.707-0.776-1.111-0.856-1.212s-0.164-0.198-0.253-0.295
		c-0.257-0.273-0.515-0.41-0.771-0.41v-0.12c0.064,0.008,0.148,0.012,0.253,0.012s0.233-0.004,0.386-0.012
		c0.996-0.024,1.623-0.442,1.882-1.254c0.047-0.16,0.071-0.311,0.071-0.452v-0.271c-0.017-0.538-0.157-0.973-0.422-1.302
		c-0.266-0.329-0.623-0.506-1.073-0.53C299.917,70.799,299.675,70.795,299.386,70.795"/>
	<path fill="#FFFFFF" d="M305.823,78.737c0.209,0,0.388-0.074,0.536-0.224c0.148-0.148,0.227-0.327,0.235-0.536v-6.749
		c-0.024-0.193-0.108-0.355-0.253-0.488s-0.318-0.199-0.519-0.199h-0.145l-0.013-0.12h3.532c0.248,0,0.52-0.024,0.812-0.072
		c0.294-0.049,0.5-0.097,0.621-0.145v1.519h-0.121v-0.217c0-0.193-0.065-0.357-0.198-0.494s-0.291-0.209-0.476-0.217h-2.459v3.724
		h2.037c0.16-0.008,0.297-0.068,0.409-0.181s0.169-0.253,0.169-0.422v-0.169h0.12v1.904h-0.12v-0.181c0-0.16-0.054-0.297-0.163-0.41
		c-0.108-0.112-0.242-0.172-0.403-0.181h-2.049v3.604h1.724c0.595,0,1.049-0.132,1.361-0.397c0.313-0.265,0.575-0.658,0.784-1.181
		h0.12l-0.699,1.952h-5.002v-0.12H305.823z"/>
	<path fill="#FFFFFF" d="M313.596,78.363c-0.024-0.112-0.036-0.329-0.036-0.65s0.061-0.663,0.181-1.024h0.108
		c-0.008,0.088-0.012,0.177-0.012,0.265c0,0.49,0.148,0.897,0.445,1.224c0.298,0.325,0.691,0.488,1.182,0.488
		c0.506,0,0.922-0.153,1.247-0.458c0.324-0.306,0.488-0.689,0.488-1.151s-0.157-0.839-0.47-1.127l-2.314-2.146
		c-0.434-0.401-0.65-0.888-0.65-1.458s0.19-1.059,0.572-1.465c0.382-0.405,0.897-0.608,1.549-0.608c0.305,0,0.649,0.04,1.036,0.121
		h0.47v1.482h-0.108c0-0.378-0.131-0.679-0.392-0.904c-0.261-0.225-0.597-0.338-1.006-0.338c-0.41,0-0.754,0.137-1.03,0.41
		c-0.277,0.273-0.416,0.614-0.416,1.024s0.16,0.764,0.481,1.061l2.375,2.193c0.401,0.37,0.603,0.876,0.603,1.519
		c0,0.644-0.205,1.172-0.615,1.585c-0.409,0.414-0.957,0.621-1.639,0.621c-0.354,0-0.729-0.055-1.127-0.163
		S313.813,78.588,313.596,78.363"/>
	<path fill="#FFFFFF" d="M320.285,78.363c-0.024-0.112-0.036-0.329-0.036-0.65s0.061-0.663,0.181-1.024h0.108
		c-0.008,0.088-0.012,0.177-0.012,0.265c0,0.49,0.148,0.897,0.445,1.224c0.298,0.325,0.691,0.488,1.182,0.488
		c0.506,0,0.922-0.153,1.247-0.458c0.325-0.306,0.488-0.689,0.488-1.151s-0.157-0.839-0.47-1.127l-2.314-2.146
		c-0.434-0.401-0.65-0.888-0.65-1.458s0.19-1.059,0.572-1.465c0.382-0.405,0.897-0.608,1.549-0.608c0.305,0,0.65,0.04,1.036,0.121
		h0.47v1.482h-0.107c0-0.378-0.132-0.679-0.393-0.904c-0.261-0.225-0.597-0.338-1.006-0.338c-0.41,0-0.754,0.137-1.03,0.41
		c-0.277,0.273-0.416,0.614-0.416,1.024s0.16,0.764,0.481,1.061l2.375,2.193c0.401,0.37,0.603,0.876,0.603,1.519
		c0,0.644-0.205,1.172-0.614,1.585c-0.41,0.414-0.957,0.621-1.64,0.621c-0.354,0-0.729-0.055-1.127-0.163
		S320.501,78.588,320.285,78.363"/>
	<path fill="#FFFFFF" d="M327.119,78.737c0.209,0,0.388-0.074,0.536-0.224c0.148-0.148,0.227-0.327,0.234-0.536v-6.749
		c-0.023-0.193-0.107-0.355-0.252-0.488s-0.318-0.199-0.519-0.199h-0.146l-0.012-0.12h3.532c0.248,0,0.52-0.024,0.813-0.072
		c0.293-0.049,0.5-0.097,0.62-0.145v1.519h-0.12v-0.217c0-0.193-0.066-0.357-0.199-0.494s-0.291-0.209-0.476-0.217h-2.459v3.724
		h2.037c0.16-0.008,0.297-0.068,0.409-0.181s0.169-0.253,0.169-0.422v-0.169h0.12v1.904h-0.12v-0.181c0-0.16-0.054-0.297-0.163-0.41
		c-0.108-0.112-0.242-0.172-0.403-0.181h-2.049v3.604h1.724c0.595,0,1.049-0.132,1.361-0.397c0.313-0.265,0.575-0.658,0.784-1.181
		h0.12l-0.699,1.952h-5.002v-0.12H327.119z"/>
	<path fill="#FFFFFF" d="M334.892,78.363c-0.024-0.112-0.036-0.329-0.036-0.65s0.061-0.663,0.181-1.024h0.108
		c-0.008,0.088-0.012,0.177-0.012,0.265c0,0.49,0.148,0.897,0.445,1.224c0.298,0.325,0.691,0.488,1.182,0.488
		c0.506,0,0.922-0.153,1.247-0.458c0.325-0.306,0.488-0.689,0.488-1.151s-0.157-0.839-0.47-1.127l-2.314-2.146
		c-0.434-0.401-0.65-0.888-0.65-1.458s0.19-1.059,0.572-1.465c0.382-0.405,0.897-0.608,1.549-0.608c0.305,0,0.65,0.04,1.036,0.121
		h0.47v1.482h-0.108c0-0.378-0.131-0.679-0.392-0.904c-0.261-0.225-0.597-0.338-1.006-0.338c-0.41,0-0.754,0.137-1.03,0.41
		c-0.277,0.273-0.416,0.614-0.416,1.024s0.16,0.764,0.481,1.061l2.375,2.193c0.401,0.37,0.603,0.876,0.603,1.519
		c0,0.644-0.205,1.172-0.615,1.585c-0.409,0.414-0.956,0.621-1.639,0.621c-0.354,0-0.729-0.055-1.127-0.163
		S335.109,78.588,334.892,78.363"/>
	<path fill="#FFFFFF" d="M117.508,26.683c-5.946-2.461-11.37-4.041-17.754-4.855c4.594-0.672,9.055-2.239,13.06-4.587
		c1.946-1.14,3.801-2.478,5.281-4.179c2.004-2.303,3.289-5.284,3.565-8.323c-0.806,4.442-4.412,7.984-8.532,9.833
		c-4.119,1.849-8.444,1.789-12.954,2.003c3.2-0.818,6.099-2.767,8.063-5.423c1.965-2.655,2.933-6.054,2.778-9.353
		c0.035,3.967-2.471,7.684-5.848,9.767c-3.376,2.083-7.495,2.696-11.454,2.445c-3.959-0.25-7.608-1.441-11.433-2.494
		c2.852-2.195,3.902-6.028,2.997-9.51c-1.576,3.907-5.898,6.062-10.074,6.618c-4.176,0.555-8.409-0.134-12.622-0.121
		c-3.186,0.01-6.541,0.518-9.258,2.07l0.003-0.006c-1.268,0.631-2.956,2.095-2.956,2.095c-0.139,1.539-1.508,4.6-1.508,4.6
		c0.798,0.026,3.191-0.331,3.241-0.343c7.389-1.199,13.689-1.952,20.99-0.339c7.447,1.646,14.712,6.698,16.354,14.147
		c1.546-2.868,4.621-4.517,7.743-5.072c3.676-0.654,7.739-0.409,11.303,0.672c2.575,0.781,5.042,1.88,7.58,2.773
		c3.218,1.133,6.553,1.932,9.933,2.387c3.204,0.431,6.809,0.822,10.012,0.314C129.51,31.356,123.489,29.158,117.508,26.683"/>
	<path fill="#FFFFFF" d="M41.139,13.854c0.077-1.951-0.159-3.728-0.748-5.59c0.069,1.09-0.22,2.199-0.81,3.118
		c-0.279,0.433-0.622,0.824-0.873,1.273c-0.165,0.294-0.25,0.624-0.277,0.956l-0.033,0.017c0,0-0.024,2.382,0.894,3.293l1.66,0.343
		C40.952,17.264,39.971,15.164,41.139,13.854"/>
</g>
</svg>
