<?xml version="1.0" encoding="utf-8"?>
<!-- Generator: Adobe Illustrator 16.0.0, SVG Export Plug-In . SVG Version: 6.00 Build 0)  -->
<!DOCTYPE svg PUBLIC "-//W3C//DTD SVG 1.1//EN" "http://www.w3.org/Graphics/SVG/1.1/DTD/svg11.dtd">
<svg version="1.1" id="Layer_1" xmlns="http://www.w3.org/2000/svg" xmlns:xlink="http://www.w3.org/1999/xlink" x="0px" y="0px"
	 width="150px" height="176px" viewBox="0 0 150 176" enable-background="new 0 0 150 176" xml:space="preserve">
<g>
	<path id="usi-emblem" fill="#FFFFFF" d="M122,136.5c-10.5,0-20.4-2-29.5-5.7l-4.9-27l4.2,2.3l10.9,17.9l26.8,5.4l16-25.8l-25.3-51.8l-14.7-14.4
		l28-37.3L71,14.6c-0.8,0.2-17.3,4.4-33.3,15.2C15.1,43.6,0,68.6,0,97.1C0,140.7,35.3,176,78.9,176c31.3,0,58.3-18.2,71.1-44.6
		C141.3,134.7,131.8,136.5,122,136.5z M74.8,30.1l19.5-4.6l-10,13.3L107,61.2l20.2,41.4l-5.5,8.9l-9-1.8l-9.5-15.6L65.5,73.6l8.9,47
		C55.4,106.2,43,83.4,43,57.6c0-4.3,0.4-8.6,1-12.8C58.3,34.4,74.7,30.2,74.8,30.1z M28.7,56.6c0,0.3,0,0.7,0,1c0,4.6,0.3,9,1,13.4
		c-3.6-1.6-5.9-3.4-7.4-4.9C24.2,62.8,26.3,59.6,28.7,56.6z M17.4,77.8c3.6,2.6,8.5,5.1,15.4,7.2c1.5,4.7,3.3,9.3,5.4,13.6
		c-13.6-3.8-20.2-7.2-23.4-9.2C15.3,85.4,16.2,81.5,17.4,77.8z M16.9,114.9c-1.1-4-1.9-8.1-2.3-12.3c6.8,3.3,17.1,6.8,32.3,10.4
		c3.8,5.2,8.2,10,13,14.3C33.6,122,21.9,117.5,16.9,114.9z M78.9,161.7c-23.6,0-44.3-12.7-55.5-31.7c14,4.7,34.9,9.2,62,13.4
		c9.2,3.9,19.1,6.5,29.5,7.2C104.4,157.7,91.9,161.7,78.9,161.7z"/>
</g>
</svg>
