<?xml version="1.0" encoding="utf-8"?>
<!-- Generator: Adobe Illustrator 16.0.0, SVG Export Plug-In . SVG Version: 6.00 Build 0)  -->
<!DOCTYPE svg PUBLIC "-//W3C//DTD SVG 1.1//EN" "http://www.w3.org/Graphics/SVG/1.1/DTD/svg11.dtd">
<svg version="1.1" id="Layer_1" xmlns="http://www.w3.org/2000/svg" xmlns:xlink="http://www.w3.org/1999/xlink" x="0px" y="0px"
	 width="382.4px" height="64.3px" viewBox="0 0 382.4 64.3" enable-background="new 0 0 382.4 64.3" xml:space="preserve">
<g>
	<g>
		<path fill="#2E2044" d="M40.3,5.8l-0.2,1.1l-0.2,0.2c-1.3,0-2.5,0.1-3.2,0.6c-0.6,0.5-1.3,1.2-1.4,3.4C35,13,35,14.7,35,20.3v11.5
			c0,7.9-4.6,14-14.5,14c-11.2,0-15.2-6.1-15.2-14V20.3c0-5.6,0-7.3-0.1-9.2C5,8.9,4.3,8.2,3.7,7.7C2.9,7.1,1.7,7.1,0.5,7.1L0.2,6.8
			L0,5.8l0.1-0.2c1.1,0.1,5.6,0.4,6.7,0.4H8c1.1,0,5.6-0.3,6.7-0.4l0.1,0.2l-0.2,1.1l-0.2,0.2c-1.3,0-2.5,0.1-3.2,0.6
			c-0.6,0.5-1.3,1.2-1.4,3.4c-0.2,2.2-0.2,3.4-0.2,9.1v9.9c0,8.6,4.1,12.1,11,12.1s11-3.5,11-12.1v-9.9c0-5.8,0-6.9-0.2-9.1
			c-0.2-2.2-0.8-2.9-1.5-3.4c-0.7-0.5-1.9-0.6-3.2-0.6l-0.3-0.2l-0.2-1.1l0.1-0.2c1.1,0.1,4.9,0.4,6.1,0.4h1.3
			c1.1,0,5.3-0.3,6.4-0.4L40.3,5.8z"/>
		<path fill="#2E2044" d="M54,45.4c-1.1-0.1-5-0.2-6.1-0.2H47c-1.1,0-5,0.2-6.2,0.2l-0.1-0.2l0.1-0.8l0.2-0.2c1.3,0,2.6-0.1,3.3-0.7
			c0.6-0.5,0.7-1.3,0.9-2.9c0.1-1.3,0.2-2.2,0.2-5.1V28c0-3.4,0-4.4-0.2-6c-0.1-0.8-0.5-1.6-0.8-1.9c-0.8-1-2.1-1-3.4-1l-0.2-0.2V18
			l0.2-0.2h1.1c1.3,0,3.8,0,5.3-0.2l2.1-0.3l0.4,0.5c-0.5,1.5-0.4,3.6-0.4,4.9c2-3.4,5.3-6.1,10.1-6.1c4.6,0,9.3,2.5,10,8.3
			c0.2,2.1,0.2,4.5,0.2,6.8c0,2.9,0.1,5.8,0.1,8.7c0.2,1.8,0.4,2.5,0.8,2.9C71.6,44,73,44,74.2,44l0.2,0.2l0.1,0.8l-0.1,0.2
			c-1.4-0.1-3.1-0.2-4.7-0.2c-1.4,0-2.9,0.1-4.1,0.2l-0.4-0.6c0.3-1,0.5-3,0.5-4.3c0.2-3.3,0.2-6.8,0.2-9c0-1.8-0.1-4.2-0.5-5.8
			c-0.8-3.7-3.5-5.6-6.8-5.6c-5.3,0-9.2,5.2-9.2,7.8v6.8c0,3.5,0.1,4.1,0.2,5.8c0.2,1.7,0.3,2.4,0.9,2.9c0.7,0.5,1.9,0.7,3.1,0.7
			l0.3,0.3l0.1,0.8L54,45.4z"/>
		<path fill="#2E2044" d="M87.5,45.4c-1.1-0.1-5-0.2-6.1-0.2h-0.8c-1.1,0-5,0.2-6.2,0.2l-0.1-0.2l0.1-0.8l0.2-0.2
			c1.3,0,2.6-0.1,3.3-0.7c0.6-0.5,0.7-1.3,0.9-2.9c0.1-1.3,0.2-2.2,0.2-5.1V28c0-3.4-0.1-4.4-0.2-6c-0.1-0.8-0.5-1.6-0.8-1.9
			c-0.8-1-2.1-1-3.4-1l-0.2-0.2V18l0.2-0.2h1.1c1.3,0,3.8,0,5.3-0.2l2.1-0.3l0.4,0.5c-0.3,0.7-0.4,3.5-0.4,4.5
			c0,1.3-0.1,2.1-0.1,5.6v6.7c0,3.5,0.1,4.1,0.2,5.8c0.1,1.7,0.3,2.4,0.9,2.9c0.7,0.5,1.9,0.7,3.1,0.7l0.3,0.3l0.1,0.8L87.5,45.4z
			 M80.2,4.3c1.6,0,2.9,1.4,2.9,2.9s-1.4,2.8-2.9,2.8c-1.6,0-2.8-1.3-2.8-2.8S78.7,4.3,80.2,4.3z"/>
		<path fill="#2E2044" d="M111.4,23.9l-0.2-0.2c0-3.7-4.9-4.4-7.4-4.4c-7.3,0-10.7,5.8-10.7,11.8c0,6.1,3.7,11.6,11.6,11.6
			c2.7,0,6.4-1,8.8-2.2l0.6,0.6l-0.9,1.7c-1.7,1.3-5.9,3-10,3c-7.9,0-14.7-5.8-14.7-14.5c0-8.8,6.9-14.7,15.4-14.7
			c3.8,0,7.6,1.2,9.3,2.2l0.2,0.5l-0.7,4.6H111.4z"/>
		<path fill="#2E2044" d="M145.6,31.5c0,7.3-4.9,14.3-14.7,14.3c-10.1,0-14.9-7.3-14.9-14.6c0-7.9,5.5-14.6,14.8-14.6
			C140.3,16.6,145.6,23.8,145.6,31.5z M141,31.5c0-5.8-3.7-12.4-10.4-12.4c-7,0-10.1,6.1-10.1,11.9c0,5.9,3.8,12.4,10.3,12.4
			C137.6,43.4,141,37.5,141,31.5z"/>
		<path fill="#2E2044" d="M147.4,18l0.2-0.2h1.1c1.3,0,3.8,0,5.3-0.2l2.1-0.3l0.4,0.5c-0.5,1.7-0.5,4.1-0.5,6.1c1.6-3,3.9-7.3,8-7.3
			c1.4,0,3.6,0.5,4.3,1.2l0.5,0.5l-0.7,4.6h-2c-0.2-1.1-1.1-2.2-3.2-2.2c-4,0-6.9,5.3-6.9,8.5v5.3c0,3.5,0.1,4.1,0.2,5.3l0.1,0.5
			c0.1,1.2,0.2,2.4,0.9,2.9c0.8,0.6,3.3,0.7,4.3,0.7l0.3,0.3l0.1,0.8l-0.1,0.2c-1.1-0.1-5.5-0.2-6.6-0.2h-1.4
			c-1.1,0-5.1,0.2-6.2,0.2l-0.1-0.2l0.1-0.8l0.2-0.2c1.3,0,2.6-0.1,3.3-0.7c0.6-0.5,0.7-1.3,0.9-2.9l0.1-0.5
			c0.1-0.8,0.1-1.7,0.1-4.6V28c0-3.4-0.1-4.4-0.2-6c-0.1-0.8-0.5-1.6-0.8-1.9c-0.8-1-2.1-1-3.4-1l-0.2-0.2V18z"/>
		<path fill="#2E2044" d="M181.9,45.4c-1.1-0.1-5-0.2-6.1-0.2H175c-1.1,0-5,0.2-6.2,0.2l-0.1-0.2l0.1-0.8L169,44
			c1.3,0,2.6-0.1,3.3-0.7c0.6-0.5,0.7-1.3,0.9-2.9c0.1-1.3,0.2-2.2,0.2-5.1V28c0-3.4,0-4.4-0.2-6c-0.1-0.8-0.5-1.6-0.8-1.9
			c-0.8-1-2.1-1-3.4-1l-0.2-0.2V18l0.2-0.2h1.1c1.3,0,3.8,0,5.3-0.2l2.1-0.3l0.4,0.5c-0.5,1.5-0.4,3.6-0.4,4.9
			c2-3.4,5.3-6.1,10.1-6.1c4.6,0,9.3,2.5,10,8.3c0.2,2.1,0.2,4.5,0.2,6.8c0,2.9,0.1,5.8,0.1,8.7c0.2,1.8,0.4,2.5,0.8,2.9
			c0.7,0.6,2.1,0.7,3.4,0.7l0.2,0.2l0.1,0.8l-0.1,0.2c-1.4-0.1-3.1-0.2-4.7-0.2c-1.4,0-2.9,0.1-4.1,0.2l-0.4-0.6
			c0.3-1,0.5-3,0.5-4.3c0.2-3.3,0.2-6.8,0.2-9c0-1.8-0.1-4.2-0.5-5.8c-0.8-3.7-3.5-5.6-6.8-5.6c-5.3,0-9.2,5.2-9.2,7.8v6.8
			c0,3.5,0.1,4.1,0.2,5.8c0.2,1.7,0.3,2.4,0.9,2.9c0.7,0.5,1.9,0.7,3.1,0.7l0.3,0.3l0.1,0.8L181.9,45.4z"/>
		<path fill="#2E2044" d="M267.2,22.4c6,1.9,12,4.6,12,12.2c0,8.2-6.8,11.2-14.5,11.2c-4.9,0-9.1-1.3-12.3-2.9l-0.2-0.8l1-6.4h1.5
			l0.3,0.4c0.4,4.9,4.1,7.1,10.1,7.1c6.2,0,9.4-3.2,9.4-7.7c0-5.6-5.3-7.2-10.4-8.9c-6.4-2-11.3-4.7-11.3-11
			c0-7.5,5.6-10.3,12.8-10.3c4.3,0,8.4,1,10.8,2l0.2,0.7l-0.8,5.3h-1.7l-0.3-0.3c-0.3-4.2-5.3-4.9-8.3-4.9c-5.2,0-8.3,2.4-8.3,6.6
			C257.2,19.1,260.4,20.2,267.2,22.4z"/>
		<path fill="#2E2044" d="M280.7,1.5l0.2-0.2h1.1c1.3,0,3.8,0,5.3-0.2l2.2-0.3l0.4,0.5c-0.3,0.7-0.4,3.7-0.4,4.6
			c-0.2,2.6-0.2,3.9-0.2,10.7v13.1c0,6.8,0.1,8,0.2,10.8c0.2,1.7,0.3,2.4,0.9,2.9c0.7,0.5,1.9,0.7,3.1,0.7l0.3,0.3l0.1,0.8l-0.1,0.2
			c-1.1-0.1-5-0.2-6.1-0.2h-0.8c-1.1,0-5,0.2-6.2,0.2l-0.1-0.2l0.1-0.8l0.2-0.2c1.3,0,2.6-0.1,3.3-0.7c0.6-0.5,0.8-1.3,0.9-2.9
			c0.1-2,0.2-3.8,0.2-9.4V16.7c0-6.6,0-8.7-0.2-11.3c-0.1-0.8-0.5-1.6-0.8-1.9c-0.8-0.9-2.1-1-3.4-1l-0.2-0.2V1.5z"/>
		<path fill="#2E2044" d="M321.2,29l-1,0.4c-4.3,0-9,0.1-13.4,0.1h-7.1c-0.1,0.5-0.1,1.1-0.1,1.6c0,6.1,3.4,11.4,11.8,11.4
			c2.5,0,5.5-0.4,7.9-1.8L320,41v1.1l-0.6,0.7c-1.9,1.5-5.6,3-10,3c-8.4,0-14.3-5.9-14.3-14.5c0-8.8,6.2-14.7,14-14.7
			c4.2,0,11,1.7,12.5,10.9L321.2,29z M300.1,27.1h2.3c4.3,0,8.3-0.1,12.7-0.4c1-0.1,1.3-0.6,1.3-1.3c0-0.5-0.1-0.9-0.2-1.3
			c-0.9-3-3.4-4.9-7-4.9C304.1,19.3,301,22.9,300.1,27.1z"/>
		<path fill="#2E2044" d="M349.7,29l-1,0.4c-4.3,0-9,0.1-13.4,0.1h-7.1c-0.1,0.5-0.1,1.1-0.1,1.6c0,6.1,3.4,11.4,11.8,11.4
			c2.5,0,5.5-0.4,7.9-1.8l0.6,0.4v1.1l-0.6,0.7c-1.9,1.5-5.6,3-10,3c-8.4,0-14.3-5.9-14.3-14.5c0-8.8,6.2-14.7,14-14.7
			c4.2,0,11,1.7,12.5,10.9L349.7,29z M328.6,27.1h2.3c4.3,0,8.3-0.1,12.7-0.4c1-0.1,1.3-0.6,1.3-1.3c0-0.5-0.1-0.9-0.2-1.3
			c-0.9-3-3.4-4.9-7-4.9C332.6,19.3,329.5,22.9,328.6,27.1z"/>
		<path fill="#2E2044" d="M350.8,18l0.2-0.2h1.1c1.3,0,3.8,0,5.3-0.2l2.1-0.3l0.4,0.5c-0.3,0.6-0.4,3.1-0.4,4.3
			c2.3-3.2,5.7-5.5,9.8-5.5c9.1,0,13.2,6.9,13.2,14.2c0,10.9-7.5,14.9-13.1,14.9c-3.9,0-7.6-1.6-10-5.9v5.5c0,6.5,0.1,7.7,0.2,10.4
			c0.2,1.6,0.3,2.4,0.9,2.9c0.7,0.6,1.9,0.7,3.1,0.7l0.3,0.2l0.1,0.8l-0.1,0.2c-1.1,0-5-0.2-6.1-0.2h-0.8c-1.1,0-5,0.2-6.2,0.2
			l-0.1-0.2l0.1-0.9l0.2-0.2c1.3,0,2.6-0.1,3.3-0.7c0.6-0.5,0.8-1.3,0.9-2.9c0.1-2,0.2-3.7,0.2-9.1v-14c0-6.4-0.1-8.3-0.2-10.9
			c-0.1-0.8-0.5-1.6-0.8-1.9c-0.8-1-2.1-1-3.4-1l-0.2-0.2V18z M368.9,20c-6,0-9.5,5.2-9.7,7.7v6.6c0.4,2.5,3.2,8.1,9.5,8.1
			s9.1-5.8,9.1-11.5C377.9,25.5,375.1,20,368.9,20z"/>
	</g>
	<g>
		<path fill="#2E2044" d="M252.4,48.2L252.4,48.2l0.4-0.1c0.4,0,1,0,1.4-0.1l0.6-0.1l0.1,0.1c-0.1,0.2-0.1,1-0.1,1.3
			c0,0.7,0,1.1,0,2.9v3.6c0,1.8,0,2.2,0.1,2.9c0,0.5,0.1,0.7,0.2,0.8c0.2,0.1,0.5,0.2,0.8,0.2l0.1,0.1l0,0.2l0,0.1
			c-0.3,0-1.4-0.1-1.7-0.1h-0.2c-0.3,0-1.4,0-1.7,0.1l0-0.1l0-0.2l0.1-0.1c0.3,0,0.7,0,0.9-0.2c0.2-0.1,0.2-0.4,0.2-0.8
			c0-0.6,0-1,0-2.5v-3.9c0-1.8,0-2.4,0-3.1c0-0.2-0.1-0.4-0.2-0.5c-0.2-0.2-0.6-0.3-0.9-0.3l-0.1-0.1V48.2z"/>
		<path fill="#2E2044" d="M263.7,60c0.1-0.3,0.1-0.8,0.1-1.3c-0.6,0.9-1.4,1.6-2.7,1.6c-1.2,0-2.4-0.5-2.7-2.1
			c-0.1-0.6-0.1-1.2-0.1-1.8c0-0.6,0-2.1,0-2.5c0-0.2-0.1-0.4-0.2-0.5c-0.2-0.2-0.6-0.3-0.9-0.3l0-0.1v-0.2l0,0h0.3
			c0.4,0,1,0,1.4-0.1l0.6-0.1l0.1,0.1c-0.1,0.2-0.1,1-0.1,1.3c0,0.7,0,1.9,0,2.5c0,0.5,0,1.1,0.1,1.6c0.2,1,1,1.5,1.8,1.5
			c1.3,0,2.3-1.2,2.5-1.9v-2.1c0-0.9,0-1.2-0.1-1.6c0-0.2-0.1-0.4-0.2-0.5c-0.2-0.3-0.6-0.3-0.9-0.3l-0.1-0.1v-0.2l0.1,0h0.3
			c0.4,0,1,0,1.4-0.1l0.6-0.1l0.1,0.1c-0.1,0.2-0.1,1-0.1,1.3c0,0.4,0,0.5,0,1.5v1.8c0,0.9,0,1.1,0,1.6c0,0.5,0.1,0.7,0.2,0.8
			c0.2,0.2,0.6,0.2,0.9,0.2l0.1,0.1l0,0.2l0,0.1c-0.4,0-0.9-0.1-1.3-0.1c-0.4,0-0.8,0-1.1,0L263.7,60z"/>
		<path fill="#2E2044" d="M271.4,55.7c0.8-1,1.5-2.1,1.5-2.2c0-0.4-0.1-0.5-0.6-0.5l-0.1-0.1v-0.2l0.1-0.1c0.4,0.1,0.7,0.1,1,0.1
			h0.7c0.4,0,0.7,0,1.1-0.1l0.1,0.1v0.2L275,53c-0.7,0.1-1,0.3-1.5,0.9c-0.8,1.1-1.2,1.6-1.7,2.4c1,1.4,2.1,2.7,2.1,2.7
			c0.3,0.4,0.6,0.7,1.3,0.8l0.1,0.1v0.2l-0.1,0.1c-0.4,0-0.9-0.1-1.2-0.1h-0.6c-0.3,0-0.8,0-1.3,0.1l-0.1-0.1v-0.2l0.1-0.1
			c0.4,0,0.7-0.2,0.7-0.4c0-0.2-0.2-0.7-1.7-2.6c-0.9,1-1.8,2.3-1.8,2.4c0,0.4,0.3,0.5,0.8,0.5l0.1,0.1v0.2l-0.1,0.1
			c-0.4-0.1-0.7-0.1-1-0.1h-0.7c-0.4,0-0.7,0-1.1,0.1l-0.1-0.1v-0.2l0.1-0.1c0.7-0.1,0.9-0.2,1.4-0.8c0.4-0.5,1.2-1.5,2-2.7
			c-0.5-0.7-1.2-1.6-2-2.7c-0.3-0.3-0.6-0.5-1.1-0.6l-0.1-0.1v-0.2l0.1-0.1c0.4,0,0.9,0.1,1.2,0.1h0.6c0.3,0,0.8,0,1.3-0.1l0.1,0.1
			v0.2l-0.1,0.1c-0.4,0-0.8,0.1-0.8,0.5C269.8,53.6,270.5,54.6,271.4,55.7z"/>
		<path fill="#2E2044" d="M282.8,60c0.1-0.3,0.1-0.8,0.1-1.3c-0.6,0.9-1.4,1.6-2.7,1.6c-1.2,0-2.4-0.5-2.7-2.1
			c-0.1-0.6-0.1-1.2-0.1-1.8c0-0.6,0-2.1,0-2.5c0-0.2-0.1-0.4-0.2-0.5c-0.2-0.2-0.6-0.3-0.9-0.3l0-0.1v-0.2l0,0h0.3
			c0.4,0,1,0,1.4-0.1l0.6-0.1l0.1,0.1c-0.1,0.2-0.1,1-0.1,1.3c0,0.7,0,1.9,0,2.5c0,0.5,0,1.1,0.1,1.6c0.2,1,1,1.5,1.8,1.5
			c1.3,0,2.3-1.2,2.5-1.9v-2.1c0-0.9,0-1.2-0.1-1.6c0-0.2-0.1-0.4-0.2-0.5c-0.2-0.3-0.6-0.3-0.9-0.3l-0.1-0.1v-0.2l0.1,0h0.3
			c0.4,0,1,0,1.4-0.1l0.6-0.1l0.1,0.1c-0.1,0.2-0.1,1-0.1,1.3c0,0.4,0,0.5,0,1.5v1.8c0,0.9,0,1.1,0,1.6c0,0.5,0.1,0.7,0.2,0.8
			c0.2,0.2,0.6,0.2,0.9,0.2l0.1,0.1l0,0.2l0,0.1c-0.4,0-0.9-0.1-1.3-0.1c-0.4,0-0.8,0-1.1,0L282.8,60z"/>
		<path fill="#2E2044" d="M286.7,52.7L286.7,52.7l0.4,0c0.4,0,1,0,1.4-0.1l0.6-0.1l0.1,0.1c-0.1,0.5-0.1,1.1-0.1,1.6
			c0.4-0.8,1.1-2,2.2-2c0.4,0,1,0.1,1.2,0.3l0.1,0.1l-0.2,1.3h-0.5c-0.1-0.3-0.3-0.6-0.9-0.6c-1.1,0-1.9,1.5-1.9,2.3v1.5
			c0,0.9,0,1.1,0,1.4l0,0.1c0,0.3,0.1,0.7,0.2,0.8c0.2,0.2,0.9,0.2,1.2,0.2l0.1,0.1l0,0.2l0,0.1c-0.3,0-1.5-0.1-1.8-0.1h-0.4
			c-0.3,0-1.4,0-1.7,0.1l0-0.1l0-0.2l0.1-0.1c0.3,0,0.7,0,0.9-0.2c0.2-0.1,0.2-0.4,0.2-0.8l0-0.1c0-0.2,0-0.5,0-1.2v-2
			c0-0.9,0-1.2,0-1.6c0-0.2-0.1-0.4-0.2-0.5c-0.2-0.3-0.6-0.3-0.9-0.3l-0.1-0.1V52.7z"/>
		<path fill="#2E2044" d="M295.4,63.2c0.4-0.4,0.7-0.9,0.9-1.4l0.5-1.3l-1.1-3c-0.2-0.4-0.9-2.3-1.3-3.3c-0.1-0.2-0.2-0.5-0.3-0.6
			c-0.2-0.3-0.5-0.5-0.9-0.6l-0.1-0.1v-0.2l0.1-0.1c0.4,0,0.8,0.1,1.2,0.1h0.6c0.3,0,0.9,0,1.3-0.1l0.1,0.1v0.2l-0.1,0.1
			c-0.5,0-0.8,0.2-0.8,0.6c0,0.5,1,3,1.1,3.4l0.8,2.1l0.8-1.9c0.3-0.7,1.2-2.7,1.2-3.7c0-0.5-0.4-0.6-0.8-0.6l-0.1-0.1v-0.2l0.1-0.1
			c0.4,0.1,0.8,0.1,1.2,0.1h0.7c0.4,0,0.7,0,1.1-0.1l0.1,0.1v0.2l-0.1,0.1c-0.4,0-0.6,0.2-0.8,0.6c-0.6,1-1.7,4-1.8,4.4l-1.6,4
			c-0.6,1.4-1.6,2-2.7,2.3c-0.2,0-0.4,0-0.6,0l-0.1,0l0-0.4l0.1-0.1C294.4,63.8,294.9,63.8,295.4,63.2z"/>
		<path fill="#2E2044" d="M310.9,55.8c1.8,0.4,2.1,1.4,2.1,2.1c0,1.4-1.2,2.4-3.1,2.4c-1.1,0-2.1-0.3-2.6-0.6l0-0.1l0.2-1.7h0.4
			l0,0.1c0,1,0.7,1.7,1.9,1.7c1.5,0,1.9-0.8,1.9-1.4c0-0.4,0-1.1-1.1-1.4l-1.6-0.4c-1.4-0.4-1.8-1.2-1.8-1.9c0-1.5,1.2-2.2,2.7-2.2
			c1,0,1.9,0.3,2.4,0.6l0,0.1l-0.2,1.3H312l-0.1,0c0-1-1.2-1.3-1.9-1.3c-1.1,0-1.5,0.7-1.5,1.3c0,0.5,0.3,1,1.2,1.2L310.9,55.8z"/>
		<path fill="#2E2044" d="M314.5,48.2L314.5,48.2l0.4-0.1c0.4,0,1,0,1.4-0.1l0.6-0.1l0.1,0.1c-0.1,0.2-0.1,1-0.1,1.3
			c0,0.7,0,1.1,0,2.9v3.6c0,1.8,0,2.2,0.1,2.9c0,0.5,0.1,0.7,0.2,0.8c0.2,0.1,0.5,0.2,0.8,0.2l0.1,0.1l0,0.2l0,0.1
			c-0.3,0-1.4-0.1-1.7-0.1h-0.2c-0.3,0-1.4,0-1.7,0.1l0-0.1l0-0.2l0.1-0.1c0.3,0,0.7,0,0.9-0.2c0.2-0.1,0.2-0.4,0.2-0.8
			c0-0.6,0-1,0-2.5v-3.9c0-1.8,0-2.4,0-3.1c0-0.2-0.1-0.4-0.2-0.5c-0.2-0.2-0.6-0.3-0.9-0.3l-0.1-0.1V48.2z"/>
		<path fill="#2E2044" d="M326.8,55.7l-0.3,0.1c-1.2,0-2.4,0-3.6,0H321c0,0.1,0,0.3,0,0.4c0,1.6,0.9,3.1,3.2,3.1
			c0.7,0,1.5-0.1,2.2-0.5l0.2,0.1v0.3l-0.2,0.2c-0.5,0.4-1.5,0.8-2.7,0.8c-2.3,0-3.9-1.6-3.9-3.9c0-2.4,1.7-4,3.8-4
			c1.1,0,3,0.5,3.4,3L326.8,55.7z M321,55.2h0.6c1.2,0,2.3,0,3.5-0.1c0.3,0,0.4-0.2,0.4-0.3c0-0.1,0-0.2-0.1-0.3
			c-0.2-0.8-0.9-1.3-1.9-1.3C322.1,53.1,321.3,54,321,55.2z"/>
		<path fill="#2E2044" d="M335.8,55.7l-0.3,0.1c-1.2,0-2.4,0-3.6,0h-1.9c0,0.1,0,0.3,0,0.4c0,1.6,0.9,3.1,3.2,3.1
			c0.7,0,1.5-0.1,2.2-0.5l0.2,0.1v0.3l-0.2,0.2c-0.5,0.4-1.5,0.8-2.7,0.8c-2.3,0-3.9-1.6-3.9-3.9c0-2.4,1.7-4,3.8-4
			c1.1,0,3,0.5,3.4,3L335.8,55.7z M330,55.2h0.6c1.2,0,2.3,0,3.5-0.1c0.3,0,0.4-0.2,0.4-0.3c0-0.1,0-0.2-0.1-0.3
			c-0.2-0.8-0.9-1.3-1.9-1.3C331.1,53.1,330.3,54,330,55.2z"/>
		<path fill="#2E2044" d="M337.3,52.7L337.3,52.7l0.4,0c0.4,0,1,0,1.4-0.1l0.6-0.1l0.1,0.1c-0.1,0.2-0.1,0.8-0.1,1.2
			c0.6-0.9,1.6-1.5,2.7-1.5c2.5,0,3.6,1.9,3.6,3.9c0,3-2,4.1-3.6,4.1c-1.1,0-2.1-0.4-2.7-1.6v1.5c0,1.8,0,2.1,0.1,2.8
			c0,0.4,0.1,0.7,0.2,0.8c0.2,0.2,0.5,0.2,0.8,0.2l0.1,0.1l0,0.2l0,0c-0.3,0-1.4,0-1.7,0h-0.2c-0.3,0-1.4,0-1.7,0l0,0l0-0.2l0.1,0
			c0.3,0,0.7,0,0.9-0.2c0.2-0.1,0.2-0.4,0.2-0.8c0-0.6,0-1,0-2.5v-3.8c0-1.7,0-2.3,0-3c0-0.2-0.1-0.4-0.2-0.5
			c-0.2-0.3-0.6-0.3-0.9-0.3l-0.1-0.1V52.7z M342.2,53.3c-1.6,0-2.6,1.4-2.6,2.1v1.8c0.1,0.7,0.9,2.2,2.6,2.2c1.7,0,2.5-1.6,2.5-3.1
			C344.7,54.8,343.9,53.3,342.2,53.3z"/>
	</g>
	<g>
		<path fill="#2E2043" d="M236.4,35c-2.7,0-5.2-0.5-7.6-1.5l-1.3-6.9l1.1,0.6l2.8,4.6l6.9,1.4l4.1-6.6L236,13.3l-3.8-3.7l7.2-9.6
			l-16,3.7c-0.2,0-4.4,1.1-8.5,3.9c-5.8,3.6-9.7,10-9.7,17.3c0,11.2,9.1,20.3,20.3,20.3c8,0,15-4.7,18.2-11.4
			C241.4,34.6,238.9,35,236.4,35z M224.3,7.7l5-1.2l-2.6,3.4l5.8,5.7l5.2,10.6l-1.4,2.3l-2.3-0.5l-2.4-4l-9.7-5.2l2.3,12.1
			c-4.9-3.7-8.1-9.6-8.1-16.2c0-1.1,0.1-2.2,0.3-3.3C220.1,8.8,224.3,7.7,224.3,7.7z M212.5,14.5c0,0.1,0,0.2,0,0.3
			c0,1.2,0.1,2.3,0.2,3.4c-0.9-0.4-1.5-0.9-1.9-1.2C211.3,16.1,211.9,15.3,212.5,14.5z M209.6,20c0.9,0.7,2.2,1.3,4,1.8
			c0.4,1.2,0.8,2.4,1.4,3.5c-3.5-1-5.2-1.8-6-2.4C209,21.9,209.3,20.9,209.6,20z M209.4,29.5c-0.3-1-0.5-2.1-0.6-3.2
			c1.8,0.8,4.4,1.7,8.3,2.7c1,1.3,2.1,2.6,3.3,3.7C213.7,31.3,210.7,30.2,209.4,29.5z M225.4,41.5c-6.1,0-11.4-3.3-14.3-8.1
			c3.6,1.2,9,2.4,15.9,3.4c2.4,1,4.9,1.7,7.6,1.9C231.9,40.5,228.7,41.5,225.4,41.5z"/>
	</g>
</g>
</svg>
